id,name,model_id:id,group_id:id,perm_read,perm_write,perm_create,perm_unlink
openacademy_course_manager,openacademy.course.manager,model_openacademy_course,group_manager,1,1,1,1
openacademy_session_manager,openacademy.session.manager,model_openacademy_session,group_manager,1,1,1,1
openacademy_test_manager,openacademy.test.manager,model_openacademy_test,group_manager,1,1,1,1
openacademy_question_manager,openacademy.question.manager,model_openacademy_question,group_manager,1,1,1,1
openacademy_question_lines_manager,openacademy.question_lines.manager,model_openacademy_question_lines,group_manager,1,1,1,1
openacademy_course,openacademy.course,model_openacademy_course,,1,1,1,1
openacademy_session,openacademy.session,model_openacademy_session,,1,1,1,1
openacademy_test,openacademy.test,model_openacademy_test,,1,1,1,1
openacademy_question,openacademy.question,model_openacademy_question,,1,1,1,1
openacademy_question_lines,openacademy.question_lines,model_openacademy_question_lines,,1,1,1,1